<?xml version="1.0" standalone="no"?>
<!DOCTYPE svg PUBLIC "-//W3C//DTD SVG 20010904//EN"
 "http://www.w3.org/TR/2001/REC-SVG-20010904/DTD/svg10.dtd">
<svg version="1.0" xmlns="http://www.w3.org/2000/svg"
 width="200.000000pt" height="200.000000pt" viewBox="0 0 200.000000 200.000000"
 preserveAspectRatio="xMidYMid meet">

<g transform="translate(0.000000,200.000000) scale(0.100000,-0.100000)"
fill="#000000" stroke="none">
<path d="M258 1198 c-20 -5 -54 -25 -76 -44 -142 -121 -57 -353 128 -354 110
0 194 72 207 177 12 102 -54 197 -152 222 -50 13 -57 13 -107 -1z m-93 -139
c-5 -15 -4 -19 4 -15 7 5 11 -2 11 -16 0 -16 3 -19 9 -10 6 10 10 7 13 -13 4
-20 2 -25 -9 -21 -11 4 -13 1 -8 -14 4 -11 2 -20 -4 -20 -6 0 -13 10 -15 23
-3 12 -7 31 -9 42 -3 13 -5 9 -6 -10 0 -16 6 -43 14 -59 9 -16 13 -32 9 -35
-9 -9 -33 29 -40 65 -7 36 11 104 27 104 6 0 7 -9 4 -21z m319 -17 c10 -37 1
-92 -20 -118 -15 -18 -15 -18 -9 6 15 51 17 108 5 130 -10 18 -9 21 1 18 8 -3
18 -19 23 -36z m-124 -36 c0 -49 -4 -65 -16 -70 -9 -3 -20 -4 -25 0 -16 10 -9
36 11 41 19 5 27 32 14 45 -3 3 -17 3 -32 -1 -23 -6 -28 -14 -32 -52 -4 -36
-9 -45 -27 -47 -29 -4 -32 28 -3 35 16 4 20 14 20 53 0 52 6 58 58 59 l32 1 0
-64z m94 28 c10 -25 7 -49 -7 -68 -12 -16 -13 -12 -13 33 1 51 9 65 20 35z
m-24 -34 c0 -11 -4 -20 -8 -20 -4 0 -8 9 -8 20 0 11 4 20 8 20 4 0 8 -9 8 -20z"/>
<path d="M600 995 c0 -33 4 -45 15 -45 10 0 15 11 16 33 0 31 1 31 10 7 16
-40 32 -42 48 -7 l15 32 4 -32 c5 -48 19 -40 24 12 3 43 2 45 -23 45 -19 0
-29 -7 -33 -22 l-7 -23 -11 23 c-7 13 -20 22 -35 22 -21 0 -23 -4 -23 -45z"/>
<path d="M760 995 l0 -45 50 0 c28 0 50 5 50 10 0 6 -16 10 -35 10 -19 0 -35
5 -35 10 0 6 14 10 30 10 17 0 30 5 30 11 0 5 -4 8 -9 5 -5 -4 -20 -2 -33 3
-21 9 -19 10 15 10 20 1 37 6 37 11 0 6 -22 10 -50 10 l-50 0 0 -45z"/>
<path d="M892 1028 c-19 -19 -14 -56 9 -69 24 -12 89 -4 89 12 0 5 -17 9 -37
7 -32 -3 -38 0 -38 17 0 17 6 20 39 17 28 -2 37 0 34 10 -6 17 -80 22 -96 6z"/>
<path d="M1020 995 c0 -46 14 -61 23 -25 3 12 14 20 26 20 14 0 21 -6 21 -20
0 -11 7 -20 15 -20 11 0 15 12 15 45 0 33 -4 45 -15 45 -8 0 -15 -9 -15 -19 0
-14 -5 -18 -20 -14 -11 3 -20 12 -20 19 0 8 -7 14 -15 14 -11 0 -15 -12 -15
-45z"/>
<path d="M1158 997 l-15 -43 53 0 c30 0 53 3 52 6 -2 3 -10 22 -18 43 -20 53
-51 51 -72 -6z m46 -2 c3 -9 0 -15 -9 -15 -9 0 -12 6 -9 15 4 8 7 15 9 15 2 0
5 -7 9 -15z"/>
<path d="M1300 995 c0 -55 26 -65 33 -12 l3 32 13 -32 c15 -37 35 -35 50 5 l9
27 1 -32 c1 -22 6 -33 16 -33 11 0 15 12 15 45 0 41 -2 45 -23 45 -15 0 -28
-9 -35 -22 l-11 -23 -7 23 c-5 16 -14 22 -35 22 -28 0 -29 -2 -29 -45z"/>
<path d="M1472 998 c3 -36 7 -44 27 -46 12 -2 34 -1 47 2 20 5 24 13 24 46 0
50 -27 57 -32 8 -2 -22 -9 -34 -20 -36 -15 -3 -18 4 -18 32 0 26 -4 36 -16 36
-12 0 -14 -9 -12 -42z"/>
<path d="M1593 1024 c-7 -19 13 -34 45 -34 12 0 22 -4 22 -9 0 -6 -17 -7 -37
-5 -36 5 -37 5 -19 -10 24 -20 56 -20 81 -2 26 19 12 44 -27 49 -33 4 -33 4 5
5 54 3 37 22 -19 22 -32 0 -46 -5 -51 -16z"/>
<path d="M1720 996 c0 -39 3 -45 20 -43 17 1 20 8 20 44 0 36 -3 43 -20 43
-17 0 -20 -7 -20 -44z"/>
<path d="M1792 1028 c-15 -15 -16 -50 0 -66 20 -20 98 -13 98 10 0 5 -17 8
-37 6 -32 -3 -38 0 -38 17 0 17 6 20 39 17 28 -2 37 0 34 10 -6 17 -80 22 -96
6z"/>
</g>
</svg>
