<?xml version="1.0" standalone="no"?>
<!DOCTYPE svg PUBLIC "-//W3C//DTD SVG 20010904//EN"
 "http://www.w3.org/TR/2001/REC-SVG-20010904/DTD/svg10.dtd">
<svg version="1.0" xmlns="http://www.w3.org/2000/svg"
 width="200.000000pt" height="60.000000pt" viewBox="0 0 200.000000 60.000000"
 preserveAspectRatio="xMidYMid meet">

<g transform="translate(0.000000,60.000000) scale(0.100000,-0.100000)"
fill="#000000" stroke="none">
<path d="M247 497 c-177 -55 -199 -294 -35 -378 53 -27 141 -25 193 4 86 49
126 159 91 252 -22 56 -82 109 -141 124 -52 13 -59 13 -108 -2z m-92 -144 c-3
-16 -2 -22 1 -15 12 25 19 11 19 -38 0 -27 -3 -50 -7 -50 -5 0 -8 5 -8 12 0 6
-3 9 -6 6 -3 -4 0 -16 6 -28 13 -25 4 -42 -11 -20 -20 33 -27 80 -17 120 12
45 31 56 23 13z m316 0 c14 -38 5 -111 -16 -132 -17 -15 -17 -15 -10 4 14 34
17 112 6 134 -8 14 -8 21 -1 21 6 0 15 -12 21 -27z m-123 -50 c-3 -60 -5 -68
-23 -68 -27 0 -32 32 -6 40 12 3 21 15 21 26 0 14 -7 19 -30 19 -27 0 -30 -3
-30 -34 0 -50 -9 -66 -36 -66 -30 0 -33 30 -4 37 16 4 20 14 20 53 0 52 6 58
58 59 l33 1 -3 -67z m98 22 c7 -27 -2 -75 -14 -75 -4 0 -7 23 -7 50 0 53 11
66 21 25z m-249 -25 c2 -11 -2 -20 -7 -20 -6 0 -10 12 -10 27 0 29 12 24 17
-7z m223 0 c0 -11 -4 -20 -8 -20 -4 0 -8 9 -8 20 0 11 4 20 8 20 4 0 8 -9 8
-20z"/>
<path d="M142 300 c0 -14 2 -19 5 -12 2 6 2 18 0 25 -3 6 -5 1 -5 -13z"/>
<path d="M1603 340 c-13 -5 -23 -13 -23 -18 0 -15 24 -32 47 -32 13 0 23 -4
23 -9 0 -6 -17 -7 -37 -5 -36 5 -37 5 -19 -10 24 -20 56 -20 81 -2 25 18 13
46 -20 46 -14 0 -25 4 -25 8 0 5 15 7 33 4 22 -3 29 -1 22 6 -15 16 -57 22
-82 12z"/>
<path d="M590 295 c0 -33 4 -45 15 -45 10 0 15 11 16 33 l1 32 9 -27 c14 -37
36 -42 45 -10 l7 27 6 -24 c12 -45 31 -36 31 13 0 42 -2 46 -24 46 -16 0 -26
-7 -30 -22 l-7 -23 -11 23 c-7 13 -20 22 -35 22 -21 0 -23 -4 -23 -45z"/>
<path d="M750 295 l0 -45 50 0 c28 0 50 5 50 10 0 6 -16 10 -35 10 -19 0 -35
5 -35 10 0 6 14 10 30 10 40 0 38 18 -2 23 -32 4 -32 4 5 5 56 3 45 22 -13 22
l-50 0 0 -45z"/>
<path d="M882 328 c-46 -46 31 -104 84 -63 18 14 16 15 -21 13 -34 -3 -40 0
-40 17 0 17 6 20 39 17 28 -2 37 0 34 10 -6 17 -80 22 -96 6z"/>
<path d="M1010 301 c0 -43 15 -63 23 -31 7 27 47 27 47 0 0 -11 7 -20 15 -20
11 0 15 12 15 45 0 33 -4 45 -15 45 -8 0 -15 -7 -15 -15 0 -8 -9 -15 -20 -15
-11 0 -20 7 -20 15 0 8 -7 15 -15 15 -11 0 -15 -11 -15 -39z"/>
<path d="M1152 313 c-5 -16 -13 -35 -16 -43 -5 -13 3 -16 49 -16 30 0 54 3 53
6 -2 3 -10 22 -18 43 -18 47 -53 52 -68 10z m37 -32 c-15 -5 -22 6 -14 19 6 9
10 9 16 -1 5 -8 4 -15 -2 -18z"/>
<path d="M1290 295 c0 -55 26 -65 33 -12 l3 32 13 -32 c14 -37 32 -35 48 5
l11 27 1 -32 c1 -22 6 -33 16 -33 11 0 15 12 15 45 0 41 -2 45 -23 45 -15 0
-28 -9 -35 -22 l-11 -23 -7 23 c-5 16 -14 22 -35 22 -28 0 -29 -2 -29 -45z"/>
<path d="M1460 300 c0 -34 4 -41 25 -46 14 -3 36 -3 50 0 21 5 25 12 25 46 0
51 -27 57 -32 8 -2 -21 -8 -33 -18 -33 -10 0 -16 12 -18 33 -5 49 -32 43 -32
-8z"/>
<path d="M1710 296 c0 -39 3 -45 20 -43 17 1 20 8 20 44 0 36 -3 43 -20 43
-17 0 -20 -7 -20 -44z"/>
<path d="M1782 328 c-18 -18 -15 -56 7 -68 25 -13 61 -13 81 0 23 15 -7 32
-31 17 -23 -14 -45 3 -35 28 4 12 14 14 42 9 29 -5 36 -4 32 7 -6 18 -79 24
-96 7z"/>
</g>
</svg>
